FORMAT: [DIP Variable name - must matched exactly from DIP],[Unit of Variable],[Variable datatype],[Number of significant figures (or decimal points) if float],[Lower threshold of variable],[Upper threshold of variable]
# Gif++,,,,,
dip/GIFpp/Atmospheric_Pressure/DipData,mbar,float-dp,1,920,1040
dip/GIFpp/Attenuators/RemoteCtrl/DipData,,boolean,,,
dip/GIFpp/CMS_CSC/DipData,,boolean,,,
dip/GIFpp/CMS_DT/DipData,,boolean,,,
dip/GIFpp/Exhaust/DipData,,boolean,,,
dip/GIFpp/Humidity_Gas_Zone/DipData,%,float-dp,3,36,60
dip/GIFpp/Humidity_Inside_Bunker/DipData,%,float-dp,3,57,63.5
dip/GIFpp/Humidity_Outside_Bunker/DipData,%,float-dp,3,41,68
dip/GIFpp/NoReturnFlow/DipData,,boolean,,,
dip/GIFpp/RP_Cosmic_Trigger/DipData,,boolean,,FALSE,TRUE
dip/GIFpp/Temp_Gas_Zone/DipData,C,float-dp,2,,
dip/GIFpp/Temp_Inside_Bunker/DipData,C,float-dp,2,,
dip/GIFpp/Temp_Outside_Bunker/DipData,C,float-dp,2,,
dip/GIFpp/TGC_Beam_Trigger/DipData,,boolean,,,
# Downstream_Attuneators,,,,,
dip/GIFpp/Attenuators/DownStreamPos/A/DipData,,int,6,1,3
dip/GIFpp/Attenuators/DownStreamPos/B/DipData,,int,6,1,3
dip/GIFpp/Attenuators/DownStreamPos/C/DipData,,int,6,1,3
dip/GIFpp/Attenuators/DownStreamPos/EffectiveAttenuation/DipData,,float-dp,1,,
# Upstream_Attuneators,,,,,
dip/GIFpp/Attenuators/UpStreamPos/A/DipData,,int,6,1,3
dip/GIFpp/Attenuators/UpStreamPos/B/DipData,,int,6,1,3
dip/GIFpp/Attenuators/UpStreamPos/C/DipData,,int,6,1,3
dip/GIFpp/Attenuators/UpStreamPos/EffectiveAttenuation/DipData,,float-dp,1,,
# Irradiator,,,,,
dip/GIFpp/Irradiator/EmergencyStop/DipData,,boolean,,,
dip/GIFpp/Irradiator/Moving/DipData,,boolean,,,
dip/GIFpp/Irradiator/Siren/DipData,,boolean,,,
dip/GIFpp/Irradiator/SourceOFF/DipData,,boolean,,,
dip/GIFpp/Irradiator/SourceON/DipData,,boolean,,,
dip/GIFpp/Irradiator/Veto/DipData,,boolean,,,
# Radmon,,,,,
dip/GIFpp/Radmon/1/REM/DipData,Gy,float-dp,2,,
dip/GIFpp/Radmon/1/Temperature/DipData,C,float-dp,2,,
dip/GIFpp/Radmon/2/REM/DipData,Gy,float-dp,2,,
dip/GIFpp/Radmon/2/Temperature/DipData,C,float-dp,2,,
dip/GIFpp/Radmon/3/REM/DipData,Gy,float-dp,2,,
dip/GIFpp/Radmon/3/Temperature/DipData,C,float-dp,2,,
dip/GIFpp/Radmon/4/REM/DipData,Gy,float-dp,2,,
dip/GIFpp/Radmon/4/Temperature/DipData,C,float-dp,2,,
dip/GIFpp/Radmon/5/REM/DipData,Gy,float-dp,2,,
dip/GIFpp/Radmon/5/Temperature/DipData,C,float-dp,2,,
dip/GIFpp/Radmon/6/REM/DipData,Gy,float-dp,2,,
dip/GIFpp/Radmon/6/Temperature/DipData,C,float-dp,2,,
dip/GIFpp/Radmon/7/REM/DipData,Gy,float-dp,2,,
dip/GIFpp/Radmon/7/Temperature/DipData,C,float-dp,2,,
dip/GIFpp/Radmon/8/REM/DipData,Gy,float-dp,2,,
dip/GIFpp/Radmon/8/Temperature/DipData,C,float-dp,2,,
dip/GIFpp/Radmon/DoseLimit/DipData,,float-sf,6,,
# Gas_System,,,,,
dip/GIFpp/Gas_System/RPC_C2H2F4_Flow/DipData,ln/h,float-sf,4,,
dip/GIFpp/Gas_System/RPC_Dew_Point/DipData,C,float-dp,2,,
dip/GIFpp/Gas_System/RPC_IC4H10_IR/DipData,%,float-dp,2,,
dip/GIFpp/Gas_System/RPC_IC4H10_Flow/DipData,ln/h,float-dp,3,,
dip/GIFpp/Gas_System/RPC_SF6_Flow/DipData,ln/h,float-sf,4,,
dip/GIFpp/Gas_System/TGC_CO2_Flow/DipData,ln/min,float-sf,4,,
# PPE154,,,,,
dip/GIFpp/PPE154/KeysSts/DipData,,string,,,
dip/GIFpp/PPE154/Mode/DipData,,string,,,
dip/GIFpp/PPE154/PPEDoorSts/DipData,,string,,,
dip/GIFpp/PPE154/PPXDoorSts/DipData,,string,,,
